[
	{
		"awm_location": "ALLEN-382",
		"classificationId": "DISTRIBUTION SUB",
		"awm_owningcomp": "UEC",
		"recordName": "INSPECT_FREQ",
		"recordValue": "M",
		"category": "SUBSTATION INSP"
	}, {
		"awm_location": "ALLEN-382",
		"classificationId": "DISTRIBUTION SUB",
		"awm_owningcomp": "UEC",
		"recordName": "INSERVCE YEAR",
		"recordValue": "1996",
		"category": "SUBSTATION INSP"
	}, {
		"awm_location": "ALLEN-382",
		"classificationId": "DISTRIBUTION SUB",
		"awm_owningcomp": "UEC",
		"recordName": "ANIMAL_IND_L",
		"recordValue": "NONE",
		"category": "ELEC_SUB_SPECS"
	}, {
		"awm_location": "COLLINSVILLE CANTEEN",
		"classificationId": "DIST/TRANS SUB (BULK)",
		"awm_owningcomp": "AIC",
		"recordName": "INSPECT_FREQ",
		"recordValue": "M",
		"category": "SUBSTATION INSP"
	}, {
		"awm_location": "COLLINSVILLE CANTEEN",
		"classificationId": "DIST/TRANS SUB (BULK)",
		"awm_owningcomp": "AIC",
		"recordName": "CAPPIN",
		"recordValue": "N",
		"category": "SUBSTATION INSP"
	}, {
		"awm_location": "COLLINSVILLE CANTEEN",
		"classificationId": "DIST/TRANS SUB (BULK)",
		"awm_owningcomp": "AIC",
		"recordName": "YRDINSP_L",
		"recordValue": "P",
		"category": "ELEC_SUB_SPECS"
	}
]
